Absolute inequality gap (two input modes) — ag_luna • lunaineq: Tools for Analyzing Health Inequality Metrics
…
#> 
#> $group_summary
#> # A tibble: 4 × 4
#>   group health_numerator health_denominator health_indicator
#>   <int>            <dbl>              <dbl>            <dbl>
#> 1     1              108             101644            106. 
#> 2     2              127             123737            103. 
#> 3     3              120             142988             83.9
#> 4     4               91             199190             45.7
#> 
#> $global_health_mean
#> [1] 78.58214
#> 
#> $data
#> # A tibble: 25 × 6
#>    health_indicator health_numerator health_denominator equity_stratifier
#>               <dbl>            <dbl>              <dbl>             <dbl>
#>  1            125.                34              27183              60.3
#>  2            118.                15              12713              50  
#>  3            134.                 8               5975              48.4
#>  4             89.5               17              18992              40  
#>  5            106.                11              10357              37.5
#>  6            107.                12              11210              33.2
#>  7             72.3               11              15214              31.7
#>  8             66.7                3               4497              29.6
#>  9            118.                39              32938              29.4
#> 10            164.                 4               2433              29.4
#> # ℹ 15 more rows
#> # ℹ 2 more variables: equity_stratifier_order <dbl>, group <int>
…
#> 
#> $group_summary
#> # A tibble: 4 × 4
#>   group health_numerator health_denominator health_indicator
#>   <int>            <dbl>              <dbl>            <dbl>
#> 1     1            75799             101644            0.746
#> 2     2            96347             123737            0.779
#> 3     3           126496             142988            0.885
#> 4     4           195811             199190            0.983
#> 
#> $global_health_mean
#> [1] 0.8711922
#> 
#> $data
#> # A tibble: 25 × 6
#>    health_indicator health_numerator health_denominator equity_stratifier
#>               <dbl>            <dbl>              <dbl>             <dbl>
#>  1            0.568            15440              27183              60.3
#>  2            0.774             9840              12713              50  
#>  3            0.878             5246               5975              48.4
#>  4            0.839            15934              18992              40  
#>  5            0.613             6349              10357              37.5
#>  6            0.805             9024              11210              33.2
#>  7            0.918            13966              15214              31.7
#>  8            0.975             4385               4497              29.6
#>  9            0.658            21673              32938              29.4
#> 10            0.932             2268               2433              29.4
#> # ℹ 15 more rows
#> # ℹ 2 more variables: equity_stratifier_order <dbl>, group <int>
…
#> 
#> $group_summary
#> # A tibble: 4 × 3
#>   group health_indicator population_weights
#>   <int>            <dbl>              <dbl>
#> 1     1            106.              100931
#> 2     2            103.              122821
#> 3     3             83.9             142103
#> 4     4             45.7             196944
#> 
#> $global_health_mean
#> [1] 78.63539
#> 
#> $data
#> # A tibble: 25 × 5
#>    health_indicator equity_stratifier population_weights equity_stratifier_order
#>               <dbl>             <dbl>              <dbl>                   <dbl>
#>  1            125.               60.3              27019                   -60.3
#>  2            118.               50                12620                   -50  
#>  3            134.               48.4               5920                   -48.4
#>  4             89.5              40                18864                   -40  
#>  5            106.               37.5              10315                   -37.5
#>  6            107.               33.2              11087                   -33.2
#>  7             72.3              31.7              15106                   -31.7
#>  8             66.7              29.6               4477                   -29.6
#>  9            118.               29.4              32682                   -29.4
#> 10            164.               29.4               2399                   -29.4
#> # ℹ 15 more rows
#> # ℹ 1 more variable: group <int>
…
#> 
#> $group_summary
#> # A tibble: 4 × 3
#>   group health_indicator population_weights
#>   <int>            <dbl>              <dbl>
#> 1     1            0.746             100931
#> 2     2            0.779             122821
#> 3     3            0.885             142103
#> 4     4            0.983             196944
#> 
#> $global_health_mean
#> [1] 0.8709839
#> 
#> $data
#> # A tibble: 25 × 5
#>    health_indicator equity_stratifier population_weights equity_stratifier_order
#>               <dbl>             <dbl>              <dbl>                   <dbl>
#>  1            0.568              60.3              27019                   -60.3
#>  2            0.774              50                12620                   -50  
#>  3            0.878              48.4               5920                   -48.4
#>  4            0.839              40                18864                   -40  
#>  5            0.613              37.5              10315                   -37.5
#>  6            0.805              33.2              11087                   -33.2
#>  7            0.918              31.7              15106                   -31.7
#>  8            0.975              29.6               4477                   -29.6
#>  9            0.658              29.4              32682                   -29.4
#> 10            0.932              29.4               2399                   -29.4
#> # ℹ 15 more rows
#> # ℹ 1 more variable: group <int>
…
