Relative Concentration Index (two input modes and optional corrections) — rci_luna • lunaineq: Tools for Analyzing Health Inequality Metrics
…
#>   metric                       estimate ci_lower ci_upper method            
#>   <chr>                           <dbl>    <dbl>    <dbl> <chr>             
#> 1 Relative concentration index   -0.173   -0.227   -0.119 Wagstaff & Kakwani
#> 
#> $interpretation
#> [1] "The Relative Concentration Index is -17.34%, 95%CI [-22.74%; -11.95%]. This means that the Health Indicator is concentrated among the most disadvantaged. In relative terms, the concentration among the most disadvantaged corresponds to 17.34% of the maximum possible concentration. Moreover, this concentration is statistically significant."
#> 
#> $note
#> [1] "Note: The maximum possible concentration would occur if the entire Health Indicator were concentrated among the most disadvantaged group."
#> 
#> $global_health_mean
#> [1] 78.58214
#> 
#> $data
#> # A tibble: 25 × 6
#>    health_indicator equity_stratifier cumulative_population social_position
#>               <dbl>             <dbl>                 <dbl>           <dbl>
#>  1            125.               60.3                0.0479          0.0239
#>  2            118.               50                  0.0703          0.0591
#>  3            134.               48.4                0.0808          0.0756
#>  4             89.5              40                  0.114           0.0976
#>  5            106.               37.5                0.133           0.123 
#>  6            107.               33.2                0.152           0.142 
#>  7             72.3              31.7                0.179           0.166 
#>  8             66.7              29.6                0.187           0.183 
#>  9            118.               29.4                0.245           0.218 
#> 10            164.               29.4                0.249           0.218 
#> # ℹ 15 more rows
#> # ℹ 2 more variables: cumulative_event_health <dbl>, func_lorenz <dbl>
…
#> 3 Relative concentration index (Erreygers adj…   0.225    0.225     0.365 Fuller
#> 
#> $interpretation
#> [1] "The Relative Concentration Index (Standard) is 6.45%, 95%CI [2.42%; 10.48%]. This means that the Health Indicator is concentrated among the most advantaged. In relative terms, the concentration among the most advantaged corresponds to 6.45% of the maximum possible concentration. Moreover, this concentration is statistically significant."                                                                 
#> [2] "The Wagstaff Concentration Index is 50.04%, 95%CI [18.75%; 81.33%]. This positive value indicates concentration of the indicator among the most advantaged groups. In relative terms, the magnitude corresponds to 50.04% of the maximum feasible inequality given the mean of the indicator. Moreover, the estimated inequality is statistically significant."                                                     
#> [3] "The Erreygers Concentration Index is 22.46 pp, 95%CI [22.46 pp; 36.51 pp]. This positive value implies that, across the socioeconomic gradient, the health indicator is on average 22.46 percentage points higher among the upper socioeconomic strata than among the lower strata, reflecting a pro-rich absolute concentration of the indicator. Moreover, the estimated inequality is statistically significant."
#> 
#> $note
#> [1] "Note: The maximum possible concentration would occur if the entire Health Indicator were concentrated among the most advantaged group."
#> 
#> $global_health_mean
#> [1] 0.8711922
#> 
#> $data
#> # A tibble: 25 × 6
#>    health_indicator equity_stratifier cumulative_population social_position
#>               <dbl>             <dbl>                 <dbl>           <dbl>
#>  1            0.568              60.3                0.0479          0.0239
#>  2            0.774              50                  0.0703          0.0591
#>  3            0.878              48.4                0.0808          0.0756
#>  4            0.839              40                  0.114           0.0976
#>  5            0.613              37.5                0.133           0.123 
#>  6            0.805              33.2                0.152           0.142 
#>  7            0.918              31.7                0.179           0.166 
#>  8            0.975              29.6                0.187           0.183 
#>  9            0.658              29.4                0.245           0.218 
#> 10            0.932              29.4                0.249           0.218 
#> # ℹ 15 more rows
#> # ℹ 2 more variables: cumulative_event_health <dbl>, func_lorenz <dbl>
…
#>   metric                       estimate ci_lower ci_upper method            
#>   <chr>                           <dbl>    <dbl>    <dbl> <chr>             
#> 1 Relative concentration index   -0.173   -0.227   -0.119 Wagstaff & Kakwani
#> 
#> $interpretation
#> [1] "The Relative Concentration Index is -17.32%, 95%CI [-22.71%; -11.92%]. This means that the Health Indicator is concentrated among the most disadvantaged. In relative terms, the concentration among the most disadvantaged corresponds to 17.32% of the maximum possible concentration. Moreover, this concentration is statistically significant."
#> 
#> $note
#> [1] "Note: The maximum possible concentration would occur if the entire Health Indicator were concentrated among the most disadvantaged group."
#> 
#> $global_health_mean
#> [1] 78.63539
#> 
#> $data
#> # A tibble: 25 × 6
#>    health_indicator equity_stratifier cumulative_population social_position
#>               <dbl>             <dbl>                 <dbl>           <dbl>
#>  1            125.               60.3                0.0480          0.0240
#>  2            118.               50                  0.0704          0.0592
#>  3            134.               48.4                0.0810          0.0757
#>  4             89.5              40                  0.114           0.0977
#>  5            106.               37.5                0.133           0.124 
#>  6            107.               33.2                0.152           0.143 
#>  7             72.3              31.7                0.179           0.166 
#>  8             66.7              29.6                0.187           0.183 
#>  9            118.               29.4                0.245           0.218 
#> 10            164.               29.4                0.250           0.218 
#> # ℹ 15 more rows
#> # ℹ 2 more variables: cumulative_event_health <dbl>, func_lorenz <dbl>
…
#> 3 Relative concentration index (Erreygers adj…   0.225    0.225     0.365 Fuller
#> 
#> $interpretation
#> [1] "The Relative Concentration Index (Standard) is 6.45%, 95%CI [2.41%; 10.48%]. This means that the Health Indicator is concentrated among the most advantaged. In relative terms, the concentration among the most advantaged corresponds to 6.45% of the maximum possible concentration. Moreover, this concentration is statistically significant."                                                                 
#> [2] "The Wagstaff Concentration Index is 49.96%, 95%CI [18.7%; 81.22%]. This positive value indicates concentration of the indicator among the most advantaged groups. In relative terms, the magnitude corresponds to 49.96% of the maximum feasible inequality given the mean of the indicator. Moreover, the estimated inequality is statistically significant."                                                      
#> [3] "The Erreygers Concentration Index is 22.46 pp, 95%CI [22.46 pp; 36.51 pp]. This positive value implies that, across the socioeconomic gradient, the health indicator is on average 22.46 percentage points higher among the upper socioeconomic strata than among the lower strata, reflecting a pro-rich absolute concentration of the indicator. Moreover, the estimated inequality is statistically significant."
#> 
#> $note
#> [1] "Note: The maximum possible concentration would occur if the entire Health Indicator were concentrated among the most advantaged group."
#> 
#> $global_health_mean
#> [1] 0.8709839
#> 
#> $data
#> # A tibble: 25 × 6
#>    health_indicator equity_stratifier cumulative_population social_position
#>               <dbl>             <dbl>                 <dbl>           <dbl>
#>  1            0.568              60.3                0.0480          0.0240
#>  2            0.774              50                  0.0704          0.0592
#>  3            0.878              48.4                0.0810          0.0757
#>  4            0.839              40                  0.114           0.0977
#>  5            0.613              37.5                0.133           0.124 
#>  6            0.805              33.2                0.152           0.143 
#>  7            0.918              31.7                0.179           0.166 
#>  8            0.975              29.6                0.187           0.183 
#>  9            0.658              29.4                0.245           0.218 
#> 10            0.932              29.4                0.250           0.218 
#> # ℹ 15 more rows
#> # ℹ 2 more variables: cumulative_event_health <dbl>, func_lorenz <dbl>
…
