Relative index of inequality (two input modes) — rii_luna • lunaineq: Tools for Analyzing Health Inequality Metrics
…
#> 1 Relative index of inequality (RII) negative binomial 0.3602192 0.2401015
#>    ci_upper
#> 1 0.5404293
#> 
#> $interpretation
#> [1] "The Relative Index of Inequality is 36.02%, 95%CI [24.01%; 54.04%]. This means that the Health Indicator is higher in the most disadvantaged group. In relative terms, the most advantaged group has 36.02% of the number of events per 100,000 individuals in the reference population compared to the most disadvantaged group. Moreover, this relationship is statistically significant."
#> 
#> $note
#> [1] "Note: Events correspond to the numerator and the base population to the denominator. The disadvantaged extreme = posicion_social 0; advantaged = 1."
#> 
#> $global_health_mean
#> [1] 78.58214
#> 
#> $data
#> # A tibble: 25 × 12
#>    health_indicator equity_stratifier health_numerator health_denominator
#>               <dbl>             <dbl>            <dbl>              <dbl>
#>  1            125.               60.3               34              27183
#>  2            118.               50                 15              12713
#>  3            134.               48.4                8               5975
#>  4             89.5              40                 17              18992
#>  5            106.               37.5               11              10357
#>  6            107.               33.2               12              11210
#>  7             72.3              31.7               11              15214
#>  8             66.7              29.6                3               4497
#>  9            118.               29.4               39              32938
#> 10            164.               29.4                4               2433
#> # ℹ 15 more rows
#> # ℹ 8 more variables: equity_stratifier_order <dbl>, pop_use <dbl>,
#> #   social_position <dbl>, pred_model_poisson <dbl>, pred_model_negbin <dbl>,
#> #   pred_model_linear <dbl>, pred_model_linear_lny <dbl>,
#> #   final_model_pred <dbl>
…
#> $summary_table
#>                    inequality_metric selected_model estimate ci_lower ci_upper
#> 1 Relative index of inequality (RII)       binomial 1.558146 1.292264 1.878735
#> 
#> $interpretation
#> [1] "The Relative Index of Inequality is 1.56, 95%CI [1.29; 1.88]. This means that the Health Indicator is higher in the most advantaged group. In relative terms, the value in the most advantaged group is 1.56 times that of the most disadvantaged group. Moreover, this relationship is statistically significant."
#> 
#> $note
#> [1] "Note: Indicator expressed as proportions (0–1). The disadvantaged extreme = posicion_social 0; advantaged = 1."
#> 
#> $global_health_mean
#> [1] 0.8711922
#> 
#> $data
#> # A tibble: 25 × 13
#>    health_indicator equity_stratifier health_numerator health_denominator
#>               <dbl>             <dbl>            <dbl>              <dbl>
#>  1            0.568              60.3            15440              27183
#>  2            0.774              50               9840              12713
#>  3            0.878              48.4             5246               5975
#>  4            0.839              40              15934              18992
#>  5            0.613              37.5             6349              10357
#>  6            0.805              33.2             9024              11210
#>  7            0.918              31.7            13966              15214
#>  8            0.975              29.6             4385               4497
#>  9            0.658              29.4            21673              32938
#> 10            0.932              29.4             2268               2433
#> # ℹ 15 more rows
#> # ℹ 9 more variables: equity_stratifier_order <dbl>, pop_use <dbl>,
#> #   social_position <dbl>, pred_model_binomial <dbl>, pred_model_quasi <dbl>,
#> #   pred_model_linear <dbl>, pred_model_linear_lny <dbl>,
#> #   pred_model_linear_logit <dbl>, final_model_pred <dbl>
…
#> 1 Relative index of inequality (RII)   linear ln(y) 0.3197676 0.2169331
#>    ci_upper
#> 1 0.4713494
#> 
#> $interpretation
#> [1] "The Relative Index of Inequality is 31.98%, 95%CI [21.69%; 47.13%]. This means that the Health Indicator is higher in the most disadvantaged group. In relative terms, the most advantaged group has 31.98% of the number of events per 100,000 individuals in the reference population compared to the most disadvantaged group. Moreover, this relationship is statistically significant."
#> 
#> $note
#> [1] "Note: Events correspond to the numerator and the base population to the denominator. The disadvantaged extreme = posicion_social 0; advantaged = 1."
#> 
#> $global_health_mean
#> [1] 78.63539
#> 
#> $data
#> # A tibble: 25 × 11
#>    health_indicator equity_stratifier population_weights equity_stratifier_order
#>               <dbl>             <dbl>              <dbl>                   <dbl>
#>  1            125.               60.3              27019                   -60.3
#>  2            118.               50                12620                   -50  
#>  3            134.               48.4               5920                   -48.4
#>  4             89.5              40                18864                   -40  
#>  5            106.               37.5              10315                   -37.5
#>  6            107.               33.2              11087                   -33.2
#>  7             72.3              31.7              15106                   -31.7
#>  8             66.7              29.6               4477                   -29.6
#>  9            118.               29.4              32682                   -29.4
#> 10            164.               29.4               2399                   -29.4
#> # ℹ 15 more rows
#> # ℹ 7 more variables: pop_use <dbl>, social_position <dbl>,
#> #   pred_model_poisson <dbl>, pred_model_negbin <dbl>, pred_model_linear <dbl>,
#> #   pred_model_linear_lny <dbl>, final_model_pred <dbl>
…
#> $summary_table
#>                    inequality_metric selected_model estimate ci_lower ci_upper
#> 1 Relative index of inequality (RII)  quasibinomial 1.557972 1.291993 1.878706
#> 
#> $interpretation
#> [1] "The Relative Index of Inequality is 1.56, 95%CI [1.29; 1.88]. This means that the Health Indicator is higher in the most advantaged group. In relative terms, the value in the most advantaged group is 1.56 times that of the most disadvantaged group. Moreover, this relationship is statistically significant."
#> 
#> $note
#> [1] "Note: Indicator expressed as proportions (0–1). The disadvantaged extreme = posicion_social 0; advantaged = 1."
#> 
#> $global_health_mean
#> [1] 0.8709839
#> 
#> $data
#> # A tibble: 25 × 12
#>    health_indicator equity_stratifier population_weights equity_stratifier_order
#>               <dbl>             <dbl>              <dbl>                   <dbl>
#>  1            0.568              60.3              27019                   -60.3
#>  2            0.774              50                12620                   -50  
#>  3            0.878              48.4               5920                   -48.4
#>  4            0.839              40                18864                   -40  
#>  5            0.613              37.5              10315                   -37.5
#>  6            0.805              33.2              11087                   -33.2
#>  7            0.918              31.7              15106                   -31.7
#>  8            0.975              29.6               4477                   -29.6
#>  9            0.658              29.4              32682                   -29.4
#> 10            0.932              29.4               2399                   -29.4
#> # ℹ 15 more rows
#> # ℹ 8 more variables: pop_use <dbl>, social_position <dbl>,
#> #   pred_model_binomial <dbl>, pred_model_quasi <dbl>, pred_model_linear <dbl>,
#> #   pred_model_linear_lny <dbl>, pred_model_linear_logit <dbl>,
#> #   final_model_pred <dbl>
…
